{
  "request": {
    "Method": "POST",
    "URI": "/create",
    "headers": null,
    "body": {
      "name": "test",
      "salary": "123",
      "age": "23"
    }
  },
  "response": {
    "code": 405,
    "headers": {
      "bla": 200,
      "blue": "bloo"
    },
    "body": {
      "name": "test",
      "salary": "123",
      "age": "23",
      "id": "719"
    }
  }
}
