{
  "request": {
    "Method": "GET",
    "URI": "/api/v1/employee/22300",
    "headers": null,
    "body": null
  },
  "response": {
    "code": 200,
    "headers": null,
    "body": {
      "id": "22300",
      "employee_name": "test100",
      "employee_salary": "111",
      "employee_age": "222",
      "profile_image": ""
    }
  }
}
