{
  "request": {
    "Method": "GET",
    "URI": "/public-api/users?",
    "headers": {
      "Authorization": "Bearer ysRSWNCcKHuO7xTHaqydo0Jo6rCbKpCch6B3"
    },
    "body": ""
  },
  "response": {
    "code": 200,
    "headers": "",
    "body": {
      "_meta": {
        "success": true,
        "code": 200,
        "message": "OK. Everything worked as expected.",
        "totalCount": 1926,
        "pageCount": 97,
        "currentPage": 1,
        "perPage": 20,
        "rateLimit": {
          "limit": 15,
          "remaining": 14,
          "reset": 4
        }
      },
      "result": [
        {
          "id": "1",
          "name": "Davin Predovic",
          "gender": "male",
          "dob": "1952-05-10",
          "email": "drussel@example.org",
          "phone": "694-959-6316 x70671",
          "website": "https://www.kessler.com/mollitia-explicabo-sunt-voluptatem-ipsa-quaerat",
          "address": "79595 Mertz Well Apt. 317\nLangworthton, TN 07899-4682",
          "status": "inactive",
          "_links": {
            "self": {
              "href": "https://gorest.co.in/public-api/users/1"
            },
            "avatar": {
              "href": "https://lorempixel.com/250/250/people/?91146"
            }
          }
        },
        {
          "id": "2",
          "name": "Joaquin Schimmel",
          "gender": "male",
          "dob": "1955-01-01",
          "email": "murray.fidel@example.net",
          "phone": "886-585-4281",
          "website": "http://wyman.com/et-et-excepturi-voluptatem-dolor-eos-autem-deserunt-enim.html",
          "address": "3130 Elena Centers\nCummingsmouth, CT 21493",
          "status": "active",
          "_links": {
            "self": {
              "href": "https://gorest.co.in/public-api/users/2"
            },
            "avatar": {
              "href": "https://lorempixel.com/250/250/people/?23319"
            }
          }
        },
        {
          "id": "3",
          "name": "Barbara Steuber",
          "gender": "female",
          "dob": "1945-05-31",
          "email": "amorar@example.com",
          "phone": "648-690-1644 x73632",
          "website": "http://bradtke.com/ut-ut-temporibus-dolores-sapiente.html",
          "address": "313 Wolff Cliffs\nLake Harmonyburgh, WA 14018-6919",
          "status": "inactive",
          "_links": {
            "self": {
              "href": "https://gorest.co.in/public-api/users/3"
            },
            "avatar": {
              "href": "https://lorempixel.com/250/250/people/?90298"
            }
          }
        },
        {
          "id": "4",
          "name": "Eulalia Wunsch",
          "gender": "female",
          "dob": "2015-08-03",
          "email": "bashirian.justus@example.org",
          "phone": "683-308-4199",
          "website": "http://www.heathcote.com/qui-et-iusto-quo-omnis",
          "address": "8621 Alfred Station Apt. 689\nPort Cindyville, OH 95096-9930",
          "status": "active",
          "_links": {
            "self": {
              "href": "https://gorest.co.in/public-api/users/4"
            },
            "avatar": {
              "href": "https://lorempixel.com/250/250/people/?59115"
            }
          }
        },
        {
          "id": "5",
          "name": "Hershel Fay",
          "gender": "male",
          "dob": "1974-12-17",
          "email": "dolly.barton@example.net",
          "phone": "1-818-877-8843",
          "website": "http://www.waelchi.info/voluptas-ipsum-itaque-dolorem-est-libero-in-et",
          "address": "6516 Cristobal Falls Suite 108\nDandrefurt, CT 90638-3525",
          "status": "active",
          "_links": {
            "self": {
              "href": "https://gorest.co.in/public-api/users/5"
            },
            "avatar": {
              "href": "https://lorempixel.com/250/250/people/?73460"
            }
          }
        },
        {
          "id": "6",
          "name": "Lila Yost",
          "gender": "female",
          "dob": "1998-12-06",
          "email": "runolfsdottir.buford@example.com",
          "phone": "925-375-1635 x76719",
          "website": "https://goldner.com/repellendus-delectus-excepturi-voluptate-animi.html",
          "address": "6115 Gillian Forge\nNew Josefina, PA 18618-2978",
          "status": "active",
          "_links": {
            "self": {
              "href": "https://gorest.co.in/public-api/users/6"
            },
            "avatar": {
              "href": "https://lorempixel.com/250/250/people/?77530"
            }
          }
        },
        {
          "id": "7",
          "name": "Lucie Hermann",
          "gender": "female",
          "dob": "1949-11-24",
          "email": "luettgen.carolina@example.net",
          "phone": "(604) 893-3457",
          "website": "http://heller.info/ipsum-necessitatibus-omnis-nam-dignissimos-est-ea-quis-facere",
          "address": "339 Runolfsson Field Apt. 498\nSouth Lenora, MI 98994-2295",
          "status": "inactive",
          "_links": {
            "self": {
              "href": "https://gorest.co.in/public-api/users/7"
            },
            "avatar": {
              "href": "https://lorempixel.com/250/250/people/?18973"
            }
          }
        },
        {
          "id": "8",
          "name": "Shania Mayer",
          "gender": "female",
          "dob": "1959-10-26",
          "email": "flatley.monte@example.net",
          "phone": "+1-828-351-6513",
          "website": "http://www.cummings.biz/doloribus-molestiae-illo-nemo-similique-aliquid.html",
          "address": "7738 Destini Hill\nSouth Tillmantown, ID 42057",
          "status": "inactive",
          "_links": {
            "self": {
              "href": "https://gorest.co.in/public-api/users/8"
            },
            "avatar": {
              "href": "https://lorempixel.com/250/250/people/?70050"
            }
          }
        },
        {
          "id": "9",
          "name": "Jacklyn Auer",
          "gender": "female",
          "dob": "1923-06-29",
          "email": "watson58@example.org",
          "phone": "402.530.0338 x53746",
          "website": "https://www.kling.com/iste-ipsam-aliquid-quis-tempora-explicabo-et",
          "address": "45765 Auer Ridge Apt. 182\nMarjolainebury, NJ 62875",
          "status": "inactive",
          "_links": {
            "self": {
              "href": "https://gorest.co.in/public-api/users/9"
            },
            "avatar": {
              "href": "https://lorempixel.com/250/250/people/?12027"
            }
          }
        },
        {
          "id": "10",
          "name": "Pinkie Tillman",
          "gender": "female",
          "dob": "1936-08-15",
          "email": "qokeefe@example.com",
          "phone": "797-673-7206",
          "website": "http://toy.com/aliquid-earum-quaerat-nostrum-ut-tempora-sed",
          "address": "945 Bartoletti Lakes Suite 483\nHarrisside, WY 74049-9991",
          "status": "active",
          "_links": {
            "self": {
              "href": "https://gorest.co.in/public-api/users/10"
            },
            "avatar": {
              "href": "https://lorempixel.com/250/250/people/?64646"
            }
          }
        },
        {
          "id": "11",
          "name": "Judge Wehner",
          "gender": "male",
          "dob": "1982-02-17",
          "email": "mlarkin@example.com",
          "phone": "950-350-2393 x912",
          "website": "http://www.stokes.biz/vel-atque-ut-voluptatem-animi-eveniet-in-quisquam.html",
          "address": "12298 Lindgren Dam\nSchambergermouth, TX 01189-7844",
          "status": "active",
          "_links": {
            "self": {
              "href": "https://gorest.co.in/public-api/users/11"
            },
            "avatar": {
              "href": "https://lorempixel.com/250/250/people/?19450"
            }
          }
        },
        {
          "id": "12",
          "name": "Rosemary Feil",
          "gender": "female",
          "dob": "1989-05-31",
          "email": "marco80@example.net",
          "phone": "+1-676-225-4549",
          "website": "http://lockman.com/autem-beatae-doloribus-rerum-quia",
          "address": "4022 Armstrong Expressway Suite 359\nSouth Lavonne, OK 93500",
          "status": "inactive",
          "_links": {
            "self": {
              "href": "https://gorest.co.in/public-api/users/12"
            },
            "avatar": {
              "href": "https://lorempixel.com/250/250/people/?17669"
            }
          }
        },
        {
          "id": "13",
          "name": "Dillan Satterfield",
          "gender": "male",
          "dob": "1995-01-07",
          "email": "gabe.hettinger@example.com",
          "phone": "1-743-693-1986",
          "website": "http://www.pouros.com/nesciunt-non-consequuntur-ab-dolor.html",
          "address": "78918 Alaina Mission\nWillside, CT 43726",
          "status": "inactive",
          "_links": {
            "self": {
              "href": "https://gorest.co.in/public-api/users/13"
            },
            "avatar": {
              "href": "https://lorempixel.com/250/250/people/?56763"
            }
          }
        },
        {
          "id": "14",
          "name": "Joshuah Kohler",
          "gender": "male",
          "dob": "2007-09-11",
          "email": "lehner.mossie@example.com",
          "phone": "(298) 705-7324 x5972",
          "website": "https://pagac.com/reiciendis-repellendus-sunt-beatae-voluptatum.html",
          "address": "489 Hardy Rapids Suite 851\nWest Hannah, AR 79895",
          "status": "inactive",
          "_links": {
            "self": {
              "href": "https://gorest.co.in/public-api/users/14"
            },
            "avatar": {
              "href": "https://lorempixel.com/250/250/people/?35080"
            }
          }
        },
        {
          "id": "15",
          "name": "Burdette Mante",
          "gender": "female",
          "dob": "1945-09-11",
          "email": "nhirthe@example.com",
          "phone": "327-705-7468",
          "website": "http://quigley.biz/",
          "address": "300 Willa Canyon Apt. 215\nMadgeview, AR 90998",
          "status": "active",
          "_links": {
            "self": {
              "href": "https://gorest.co.in/public-api/users/15"
            },
            "avatar": {
              "href": "https://lorempixel.com/250/250/people/?15257"
            }
          }
        },
        {
          "id": "16",
          "name": "Kennedi Glover",
          "gender": "male",
          "dob": "1990-11-23",
          "email": "mwalsh@example.net",
          "phone": "(814) 909-6362 x463",
          "website": "http://keebler.com/consequatur-est-a-dolorem-dolor-et",
          "address": "18371 Henri Camp\nPollichborough, NH 86735",
          "status": "active",
          "_links": {
            "self": {
              "href": "https://gorest.co.in/public-api/users/16"
            },
            "avatar": {
              "href": "https://lorempixel.com/250/250/people/?41936"
            }
          }
        },
        {
          "id": "17",
          "name": "Toney Stiedemann",
          "gender": "male",
          "dob": "1932-06-15",
          "email": "lonie.marvin@example.net",
          "phone": "(228) 952-3672",
          "website": "http://www.ritchie.com/non-rerum-fugit-est-incidunt-magnam-deleniti.html",
          "address": "5212 O'Keefe Ranch\nWest Catherine, AZ 12900-0068",
          "status": "inactive",
          "_links": {
            "self": {
              "href": "https://gorest.co.in/public-api/users/17"
            },
            "avatar": {
              "href": "https://lorempixel.com/250/250/people/?29350"
            }
          }
        },
        {
          "id": "18",
          "name": "Eva Treutel",
          "gender": "female",
          "dob": "1962-04-05",
          "email": "elnora74@example.com",
          "phone": "(619) 739-5601",
          "website": "http://www.tromp.com/minus-recusandae-sequi-eveniet-nesciunt-consequuntur-veniam-quae",
          "address": "153 Auer Parkway Apt. 373\nDudleymouth, DC 05932",
          "status": "active",
          "_links": {
            "self": {
              "href": "https://gorest.co.in/public-api/users/18"
            },
            "avatar": {
              "href": "https://lorempixel.com/250/250/people/?44919"
            }
          }
        },
        {
          "id": "19",
          "name": "Alexandre Hoppe",
          "gender": "male",
          "dob": "1971-06-04",
          "email": "jacquelyn20@example.com",
          "phone": "(389) 735-3627 x63292",
          "website": "http://www.effertz.info/deleniti-voluptatem-non-repellendus-enim-animi-consequuntur",
          "address": "36068 Mraz Hollow Suite 894\nWest Alexandrea, UT 04772",
          "status": "active",
          "_links": {
            "self": {
              "href": "https://gorest.co.in/public-api/users/19"
            },
            "avatar": {
              "href": "https://lorempixel.com/250/250/people/?49108"
            }
          }
        },
        {
          "id": "20",
          "name": "Johathan Anderson",
          "gender": "male",
          "dob": "1960-06-05",
          "email": "rau.beverly@example.org",
          "phone": "(538) 275-5946 x662",
          "website": "http://www.hilpert.biz/",
          "address": "3106 Gussie Port Suite 436\nHoegerbury, MT 66243",
          "status": "inactive",
          "_links": {
            "self": {
              "href": "https://gorest.co.in/public-api/users/20"
            },
            "avatar": {
              "href": "https://lorempixel.com/250/250/people/?12440"
            }
          }
        }
      ]
    }
  }
}
