Email,Password,ErrorMessage
qaadp@mailinator.com,Test@123
invalid@email,Test@123,Invalid email address
qaadp@mailinator.com,Test@1234,Authentication failed
qaadp@mailinator.com,Test@1234,To demo a failed case
